<?xml version="1.0" encoding="UTF-8"?>
<svg width="71px" height="59px" viewBox="0 0 71 59" version="1.1" xmlns="http://www.w3.org/2000/svg" xmlns:xlink="http://www.w3.org/1999/xlink">
    <!-- Generator: sketchtool 58 (101010) - https://sketch.com -->
    <title>FD451D1D-0F82-4EDF-90F8-AC71CF3D3233</title>
    <desc>Created with sketchtool.</desc>
    <g id="Page-1" stroke="none" stroke-width="1" fill="none" fill-rule="evenodd">
        <g id="Form-Copy-17" transform="translate(-170.000000, -3174.000000)">
            <g id="Group-4" transform="translate(170.000000, 3174.000000)">
                <g id="Group" transform="translate(0.000000, 0.052298)">
                    <path d="M52.9422523,31.0894916 C51.98816,31.0894916 50.8970215,31.0000179 49.7336985,30.7400179 C46.9927754,30.1294916 45.1682831,28.8200179 43.7015754,27.768439 C43.4578215,27.5937021 43.2224369,27.4242284 42.9933292,27.2673863 C41.6406523,26.3400179 38.5806523,22.5052811 32.2346831,14.2589653 C30.2741908,11.7115969 28.2467446,9.07686002 27.7581908,8.56843897 C26.3783138,7.13159687 24.6605292,5.34422844 21.9635446,4.67686002 C19.7708062,4.13370213 17.4221908,4.44212318 14.9804677,5.59159687 C13.5304985,6.27370213 10.0248369,8.30738634 8.77259077,12.4547548 C7.65843692,16.1442284 8.80188308,20.4989653 11.6861292,23.5494916 C13.6957908,25.6737021 16.1845908,26.7663337 19.0343138,26.7452811 C22.82976,26.6979127 26.8668677,24.6031758 30.1088985,21.0000179 L33.2117908,23.8252811 C29.1903754,28.2947548 24.0422523,30.8937021 19.0855754,30.9558074 C15.0871754,31.0063337 11.48736,29.4473863 8.65437538,26.4515969 C4.74908308,22.3210705 3.22379077,16.3463337 4.76896,11.2305442 C6.50976,5.46317581 11.2498831,2.69896529 13.2072369,1.77791265 C16.5360985,0.209491602 19.8178831,-0.191561029 22.9626215,0.587386339 C26.8312985,1.54528108 29.1997908,4.01054423 30.7669292,5.64212318 C31.3852062,6.28528108 32.9063138,8.25475476 35.5436677,11.6810705 C38.5660062,15.608439 44.1911754,22.9179127 45.3597292,23.7947548 C45.6013908,23.9610705 45.8618831,24.1463337 46.1307446,24.3400179 C47.4080985,25.2558074 48.7293908,26.2031758 50.6386215,26.6294916 C52.7780062,27.1063337 54.5386831,26.7915969 55.1967138,26.6358074 C59.9399754,25.5052811 62.1735138,20.9431758 62.4120369,20.4273863 C63.7343754,17.5694916 63.5335138,14.87686 63.2949908,13.5252811 C63.0114831,11.9221232 62.1212062,8.89475476 59.3363446,6.64107055 C56.73456,4.53475476 53.8701908,4.21054423 52.3543138,4.21054423 L52.2904985,4.21054423 C49.5223754,4.22633371 47.3495138,4.9294916 45.8304985,6.30317581 C44.0823754,7.88317581 43.5927754,8.4326495 42.78096,9.34212318 L41.23056,11.07686 L39.6853908,9.80633371 C39.6184369,9.75054423 37.9759754,8.39054423 33.3446523,3.68633371 C33.1908677,3.53054423 30.4394831,0.798965286 30.4394831,0.798965286 L36.3178215,0.723175813 C36.3178215,0.723175813 39.9207754,4.31686002 40.8759138,5.21791265 C41.3822523,4.69896529 42.0214523,4.08633371 43.0341292,3.17159687 C45.33776,1.08843897 48.4448369,0.0210705497 52.2664369,-5.15143483e-14 C54.3493292,-0.00313997666 58.31216,0.408438971 61.9590523,3.36001792 C65.8078523,6.47475476 67.02976,10.6052811 67.4147446,12.7905442 C67.7400985,14.6294916 68.0131446,18.2989653 66.2053908,22.2052811 C65.6728985,23.3558074 62.6840369,29.1779127 56.1602215,30.7337021 C55.5879754,30.8694916 54.4330215,31.0894916 52.9422523,31.0894916" id="Fill-1" fill="#FFFFFF"></path>
                    <path d="M29.93304,51.4985442 L29.93304,57.9480179 L28.7822708,58.1438074 L28.7822708,57.38486 C28.6420862,57.6006495 28.4025169,57.8038074 28.0646092,57.9953863 C27.7277477,58.1869653 27.3908862,58.2817021 27.0561169,58.2817021 C26.2892862,58.2817021 25.7055323,58.0322284 25.3059015,57.5332811 C24.9334708,57.0659127 24.7462092,56.4690705 24.7462092,55.7417021 L24.7462092,51.6701232 L26.00264,51.5311758 L26.00264,55.8301232 C26.00264,56.2101232 26.1083015,56.5195969 26.3185785,56.7585442 C26.5299015,56.9974916 26.8102708,57.116439 27.1617785,57.116439 L27.2507015,57.116439 C27.2988246,57.1059127 27.3343938,57.0995969 27.3563631,57.0995969 C27.8313169,57.0353863 28.1901477,56.8153863 28.4339015,56.4406495 C28.6284862,56.1417021 28.7257785,55.7953863 28.7257785,55.3985442 L28.7257785,51.6690705 L29.93304,51.4985442 Z M54.8669662,51.4985442 L54.8669662,57.9480179 L53.7161969,58.1438074 L53.7161969,57.38486 C53.5760123,57.6006495 53.3364431,57.8038074 52.9985354,57.9953863 C52.6616738,58.1869653 52.3248123,58.2817021 51.9900431,58.2817021 C51.2232123,58.2817021 50.6394585,58.0322284 50.2398277,57.5332811 C49.8673969,57.0659127 49.6801354,56.4690705 49.6801354,55.7417021 L49.6801354,51.6701232 L50.9365662,51.5311758 L50.9365662,55.8301232 C50.9365662,56.2101232 51.0422277,56.5195969 51.2525046,56.7585442 C51.4638277,56.9974916 51.7441969,57.116439 52.0957046,57.116439 L52.1846277,57.116439 C52.2327508,57.1059127 52.26832,57.0995969 52.2902892,57.0995969 C52.7652431,57.0353863 53.1240738,56.8153863 53.3678277,56.4406495 C53.5624123,56.1417021 53.6597046,55.7953863 53.6597046,55.3985442 L53.6597046,51.6690705 L54.8669662,51.4985442 Z M35.0217415,51.41686 L34.4379877,52.7379127 C34.3731262,52.7273863 34.2957108,52.7210705 34.2036492,52.7210705 C34.0843877,52.7210705 33.9651262,52.7315969 33.8469108,52.7505442 C33.7276492,52.7694916 33.5979262,52.8115969 33.4577415,52.8758074 C33.2035262,52.9905442 32.9796492,53.2294916 32.7850646,53.5926495 C32.5695569,54.0000179 32.4607569,54.4421232 32.4607569,54.9200179 L32.4607569,57.9400179 L31.2210646,58.1358074 L31.2210646,51.6694916 L32.3634646,51.4652811 L32.3634646,52.8115969 C32.5151569,52.5779127 32.6668492,52.3431758 32.8174954,52.1105442 C33.0340492,51.8705442 33.2788492,51.69686 33.5550338,51.588439 C33.7004492,51.5337021 33.9734954,51.488439 34.3731262,51.4537021 C34.7738031,51.4179127 34.9893108,51.4063337 35.0217415,51.41686 Z M46.1884923,51.3032811 C46.9657846,51.3032811 47.5526769,51.5095969 47.9470769,51.9232811 C48.3414769,52.3369653 48.5381538,52.9222284 48.5381538,53.6780179 L48.5381538,57.9559127 L47.4281846,58.1359127 L47.4365538,57.3285442 C47.2524308,57.4895969 47.0881846,57.6106495 46.9417231,57.6906495 C46.4992,57.9327548 46.0012308,58.0538074 45.4509538,58.0538074 C44.7918769,58.0538074 44.2436923,57.8253863 43.8053538,57.3695969 C43.3680615,56.9127548 43.1494154,56.3285442 43.1494154,55.6159127 C43.1494154,54.9643337 43.3984,54.4190705 43.8953231,53.9811758 C44.3922462,53.5432811 44.9812308,53.3243337 45.6612308,53.3243337 C46.2230154,53.3243337 46.6634462,53.4306495 46.9825231,53.6432811 C47.0850462,53.7138074 47.1875692,53.8201232 47.2900923,53.9611758 L47.2744,53.2927548 C47.2744,52.9990705 47.1509538,52.7853863 46.9051077,52.6527548 C46.6592615,52.5190705 46.2721846,52.4527548 45.7428308,52.4527548 C45.3107692,52.4527548 44.8724308,52.526439 44.4299077,52.6727548 C44.2834462,52.7211758 44.1035077,52.7980179 43.8869538,52.9011758 L44.2185846,51.5559127 C44.2729846,51.5338074 44.5083692,51.4906495 44.9247385,51.4253863 C45.4425846,51.3432811 45.8641846,51.3032811 46.1884923,51.3032811 Z M18.3773292,49.1912811 L18.3773292,52.3133863 C18.4421908,52.2312811 18.5101908,52.1470705 18.5802831,52.0586495 C18.7644062,51.8670705 18.9935138,51.7112811 19.2686523,51.5902284 C19.6630523,51.414439 20.1034831,51.3270705 20.5899446,51.3270705 C21.5189292,51.3270705 22.3004062,51.6523337 22.9354215,52.30286 C23.5704369,52.9533863 23.8874215,53.7575969 23.8874215,54.7154916 C23.8874215,55.6733863 23.5442831,56.4754916 22.8590523,57.1239127 C22.1936985,57.7491758 21.3892062,58.0618074 20.4445292,58.0618074 C19.5301908,58.0618074 18.7539446,57.7397021 18.1136985,57.0954916 C17.4744985,56.4523337 17.1533292,55.6681232 17.1533292,54.7439127 L17.1533292,49.4197021 L18.3773292,49.1912811 Z M39.3332554,51.294439 C39.9379323,51.294439 40.4861169,51.4502284 40.9778092,51.7597021 C41.3178092,51.9775969 41.6232862,52.2670705 41.89424,52.6323337 C41.9904862,52.7902284 42.0877785,52.9439127 42.1850708,53.0965442 L37.6395323,55.8775969 C37.7420554,56.0891758 37.8498092,56.2470705 37.96384,56.3502284 C38.3143015,56.6712811 38.8028554,56.8312811 39.4305477,56.8312811 C39.7914708,56.8312811 40.19424,56.7197021 40.6378092,56.4965442 C41.1399631,56.2470705 41.5155323,55.9965442 41.7645169,55.7470705 L42.0396554,57.1333863 C41.9047015,57.214439 41.7687015,57.2933863 41.6347938,57.3691758 C41.3209477,57.5375969 40.99664,57.6818074 40.6618708,57.8007548 C40.2026092,57.9649653 39.8050708,58.0460179 39.4703015,58.0460179 C38.5036554,58.0460179 37.6771938,57.7418074 36.9909169,57.1333863 C36.2722092,56.4912811 35.9133785,55.6754916 35.9133785,54.6870705 C35.9133785,53.8218074 36.1927015,53.0670705 36.7523938,52.4197021 C37.31104,51.7733863 38.0391631,51.4039127 38.9357169,51.3112811 C39.0058092,51.2997021 39.07904,51.294439 39.1543631,51.294439 L39.3332554,51.294439 Z M45.7512,54.4095969 C45.3777231,54.4095969 45.0555077,54.5327548 44.7824615,54.7801232 C44.5094154,55.0274916 44.3734154,55.3338074 44.3734154,55.6980179 C44.3734154,56.0674916 44.5292923,56.3632811 44.8431385,56.586439 C45.1350154,56.7927548 45.5043077,56.8959127 45.9531077,56.8959127 C46.3307692,56.8959127 46.6665846,56.7822284 46.9584615,56.5538074 C47.2492923,56.3253863 47.3957538,56.0380179 47.3957538,55.6895969 C47.3957538,55.3032811 47.22,54.9874916 46.8695385,54.7443337 C46.5504615,54.5211758 46.1769846,54.4095969 45.7512,54.4095969 Z M20.4518523,52.5018074 C19.8680985,52.5018074 19.3690831,52.7165442 18.9527138,53.1470705 C18.5363446,53.5775969 18.3292062,54.094439 18.3292062,54.6986495 C18.3292062,55.2818074 18.5405292,55.7870705 18.9652677,56.214439 C19.38896,56.6418074 19.8869292,56.8554916 20.4602215,56.8554916 C21.0596677,56.8554916 21.5701908,56.6460179 21.9917908,56.2270705 C22.4133908,55.8070705 22.6236677,55.2975969 22.6236677,54.6986495 C22.6236677,54.0891758 22.4144369,53.5702284 21.9959754,53.14286 C21.5775138,52.7154916 21.0628062,52.5018074 20.4518523,52.5018074 Z M39.2683938,52.4439127 C39.0842708,52.4439127 38.9043323,52.4712811 38.72544,52.5260179 C38.5465477,52.5797021 38.35824,52.6723337 38.1584246,52.80286 C37.7964554,53.0481232 37.5391015,53.3523337 37.3874092,53.7165442 C37.2848862,53.9607548 37.2336246,54.2281232 37.2336246,54.5154916 C37.2336246,54.60286 37.2367631,54.6712811 37.2419938,54.7197021 C37.2419938,54.7418074 37.2472246,54.7660179 37.2587323,54.7933863 L40.4359015,52.8786495 C40.3114092,52.7797021 40.2057477,52.7091758 40.1199631,52.6649653 C39.8385477,52.5186495 39.55504,52.4439127 39.2683938,52.4439127 Z M57.7292023,39.5333269 L57.7292023,46.0261178 L56.5636191,46.2231178 L56.5636191,45.4597429 C56.4213406,45.6786329 56.1791972,45.8852072 55.8371817,46.079472 C55.4951661,46.2737368 55.1545237,46.3708678 54.8152443,46.3708678 C54.0381849,46.3708678 53.4471909,46.1191481 53.0422445,45.6157012 C52.6646593,45.1450878 52.4758695,44.5431494 52.4758695,43.8098681 L52.4758695,39.7057018 L53.748161,39.5661602 L53.748161,43.9001597 C53.748161,44.2832172 53.8548683,44.5951307 54.068286,44.8359096 C54.2817037,45.0766886 54.5662564,45.1970763 54.9219526,45.1970763 L55.0122442,45.1970763 C55.0614945,45.1861318 55.0970636,45.1806596 55.1189526,45.1806596 C55.6005105,45.1149926 55.9644096,44.8933699 56.2106608,44.5157847 C56.4076618,44.214811 56.5061608,43.8645923 56.5061608,43.4651181 L56.5061608,39.7057018 L57.7292023,39.5333269 Z M19.8805813,37.2021604 L19.8805813,40.1982018 C19.984554,39.9902563 20.1938644,39.7946264 20.5085187,39.611306 C20.823173,39.4279857 21.1528711,39.3363269 21.4976228,39.3363269 C22.2692099,39.3363269 22.86294,39.5825744 23.2788309,40.0750768 C23.6783051,40.5511625 23.8780392,41.1421565 23.8780392,41.8480766 L23.8780392,46.0261178 L22.6303726,46.2313262 L22.6303726,41.7495766 C22.6303726,41.3719914 22.512721,41.062814 22.2774143,40.8220351 C22.0421076,40.5812561 21.7575549,40.4608684 21.4237478,40.4608684 C21.363553,40.4608684 21.3197757,40.4636045 21.2924144,40.4690768 C20.734245,40.5292715 20.3429851,40.7481582 20.1186229,41.1257434 C19.9653999,41.3829391 19.8887896,41.7304217 19.8887896,42.1682016 L19.8887896,46.0261178 L18.6247064,46.2231178 L18.6247064,37.4402021 L19.8805813,37.2021604 Z M62.8840351,39.4512435 L62.2930352,40.7809934 C62.2273682,40.7700489 62.1480217,40.7645767 62.0549935,40.7645767 C61.934604,40.7645767 61.8142164,40.774153 61.6938269,40.7933059 C61.5734374,40.8124588 61.4421054,40.8548681 61.2998269,40.920535 C61.0426312,41.0354523 60.8155363,41.2762276 60.6185353,41.6428683 C60.3996454,42.053287 60.290202,42.4992686 60.290202,42.9808265 L60.290202,46.0261178 L59.0343272,46.2231178 L59.0343272,39.7057018 L60.191702,39.5004935 L60.191702,40.8548684 L60.6513687,40.1489518 C60.8702586,39.9081728 61.1192422,39.7330635 61.3983269,39.6236185 C61.5460776,39.568896 61.8224221,39.5237506 62.2273685,39.488181 C62.6323149,39.4526114 62.8512016,39.440299 62.8840351,39.4512435 Z M10.6626239,39.4512435 L10.0716239,40.7809934 C10.005957,40.7700489 9.92661054,40.7645767 9.83358231,40.7645767 C9.71319283,40.7645767 9.59280515,40.774153 9.47241568,40.7933059 C9.3520262,40.8124588 9.22069419,40.8548681 9.07841572,40.920535 C8.82122001,41.0354523 8.59412509,41.2762276 8.39712412,41.6428683 C8.17823416,42.053287 8.06879082,42.4992686 8.06879082,42.9808265 L8.06879082,46.0261178 L6.81291595,46.2231178 L6.81291595,39.7057018 L7.97029083,39.5004935 L7.97029083,40.8548684 L8.42995745,40.1489518 C8.64884741,39.9081728 8.89783101,39.7330635 9.17691571,39.6236185 C9.32466643,39.568896 9.60101086,39.5237506 10.0059573,39.488181 C10.4109037,39.4526114 10.6297904,39.440299 10.6626239,39.4512435 Z M14.8242485,39.3855769 C15.3003341,39.3855769 15.754524,39.4649233 16.1868316,39.6236185 C16.4932776,39.7385357 16.7887746,39.8917564 17.0733315,40.0832851 L17.3852482,40.3295351 L16.5644149,41.216035 C16.4002475,41.0682843 16.2607072,40.958841 16.14579,40.8877017 C15.7846215,40.6688118 15.4043059,40.5593684 15.0048318,40.5593684 C14.922748,40.5593684 14.8598181,40.5621045 14.8160401,40.5675768 C14.2140927,40.616827 13.7352781,40.8534982 13.3795819,41.2775975 C13.0238857,41.7016968 12.8460403,42.2092403 12.8460403,42.8002432 C12.8460403,43.3967183 13.0526146,43.9193103 13.4657694,44.3680347 C13.8789242,44.8167591 14.3919399,45.0411179 15.0048318,45.0411179 C15.4480839,45.0411179 15.84208,44.9262024 16.1868316,44.696368 C16.2524986,44.65259 16.3865667,44.5294662 16.5890399,44.326993 L17.4509148,45.1888679 C17.3524144,45.2764239 17.2566514,45.3639786 17.1636232,45.4515346 C16.9064275,45.65948 16.627347,45.8263811 16.3263733,45.9522429 C15.8995379,46.1328271 15.4562923,46.2231178 14.9966234,46.2231178 C14.0170909,46.2231178 13.1948978,45.8906837 12.5300195,45.2258054 C11.8651413,44.5609272 11.5327071,43.7524145 11.5327071,42.8002432 C11.5327071,41.8590164 11.8391485,41.06008 12.4520404,40.4034101 C13.0868213,39.7248512 13.8775494,39.3855769 14.8242485,39.3855769 Z M43.8653287,39.3855769 C44.3414144,39.3855769 44.7956043,39.4649233 45.2279119,39.6236185 C45.5343579,39.7385357 45.8298549,39.8917564 46.1144118,40.0832851 L46.4263285,40.3295351 L45.6054952,41.216035 C45.4413278,41.0682843 45.3017875,40.958841 45.1868703,40.8877017 C44.8257018,40.6688118 44.4453862,40.5593684 44.0459121,40.5593684 C43.9638283,40.5593684 43.9008984,40.5621045 43.8571204,40.5675768 C43.255173,40.616827 42.7763584,40.8534982 42.4206622,41.2775975 C42.064966,41.7016968 41.8871206,42.2092403 41.8871206,42.8002432 C41.8871206,43.3967183 42.0936949,43.9193103 42.5068497,44.3680347 C42.9200045,44.8167591 43.4330202,45.0411179 44.0459121,45.0411179 C44.4891642,45.0411179 44.8831603,44.9262024 45.2279119,44.696368 C45.2935789,44.65259 45.427647,44.5294662 45.6301202,44.326993 L46.4919951,45.1888679 C46.3934947,45.2764239 46.2977317,45.3639786 46.2047035,45.4515346 C45.9475078,45.65948 45.6684273,45.8263811 45.3674536,45.9522429 C44.9406182,46.1328271 44.4973726,46.2231178 44.0377037,46.2231178 C43.0581712,46.2231178 42.2359781,45.8906837 41.5710998,45.2258054 C40.9062216,44.5609272 40.5737874,43.7524145 40.5737874,42.8002432 C40.5737874,41.8590164 40.8802288,41.06008 41.4931207,40.4034101 C42.1279015,39.7248512 42.9186297,39.3855769 43.8653287,39.3855769 Z M3.07812468,39.3363269 C3.86612854,39.3363269 4.45985865,39.5442692 4.85933283,39.9601601 C5.258807,40.3760511 5.4585411,40.964309 5.4585411,41.7249516 L5.4585411,46.0261178 L4.33399955,46.2067012 L4.34220788,45.3940762 C4.15615141,45.5582437 3.98925032,45.6813675 3.8414996,45.7634512 C3.39277518,46.0097024 2.88933582,46.1328262 2.33116642,46.1328262 C1.66355204,46.1328262 1.1081271,45.9029952 0.66487493,45.4433262 C0.221622761,44.9836573 1.63424829e-13,44.3953994 1.63424829e-13,43.6785348 C1.63424829e-13,43.0218649 0.251719679,42.4732801 0.755166588,42.0327641 C1.2586135,41.5922481 1.85507969,41.3719933 2.54458307,41.3719933 C3.11369696,41.3719933 3.55967857,41.4787006 3.88254126,41.6921183 C3.98651399,41.7632575 4.09048516,41.8699648 4.19445789,42.0122433 L4.17804123,41.33916 C4.17804123,41.0436586 4.05354943,40.828876 3.8045621,40.6948059 C3.55557477,40.5607358 3.1629468,40.4937018 2.62666639,40.4937018 C2.18888647,40.4937018 1.74564095,40.567576 1.29691653,40.7153267 C1.14916581,40.764577 0.965848216,40.8411873 0.746958255,40.94516 L1.08349989,39.5907852 C1.13822238,39.5688962 1.37626164,39.5251189 1.79762481,39.4594519 C2.32296072,39.3773681 2.74978974,39.3363269 3.07812468,39.3363269 Z M26.7919972,39.5169102 L26.7919972,46.0261178 L25.5443307,46.1984928 L25.5443307,39.7057018 L26.7919972,39.5169102 Z M67.250868,39.3281185 C67.8637599,39.3281185 68.4191848,39.4840753 68.9171595,39.7959935 C69.2619111,40.0148835 69.5710886,40.3076444 69.844701,40.6742851 C69.9432015,40.8329803 70.0417005,40.9889371 70.140201,41.14216 L65.5353265,43.9412014 C65.6392992,44.1546191 65.7487426,44.3133119 65.8636598,44.4172847 C66.219356,44.7401474 66.7145871,44.9015763 67.349368,44.9015763 C67.7160086,44.9015763 68.1236851,44.7893969 68.5724095,44.5650347 C69.0813287,44.3133112 69.4616443,44.0615915 69.7133677,43.8098681 L69.992451,45.2052846 C69.8556448,45.2873683 69.7188406,45.3667148 69.5820344,45.4433262 C69.2646439,45.612966 68.9363139,45.7579784 68.5970345,45.8783679 C68.1318933,46.0425353 67.7296891,46.1246178 67.3904096,46.1246178 C66.410877,46.1246178 65.5736355,45.8181765 64.8786599,45.2052846 C64.1508508,44.5595592 63.7869517,43.7387342 63.7869517,42.7427849 C63.7869517,41.8726973 64.0701363,41.1120661 64.6365141,40.4608684 C65.2028918,39.8096708 65.9402663,39.4375634 66.8486597,39.3445352 C66.9197989,39.3335907 66.9936732,39.3281185 67.0702847,39.3281185 L67.250868,39.3281185 Z M36.7076628,39.3281185 C37.3205547,39.3281185 37.8759797,39.4840753 38.3739543,39.7959935 C38.718706,40.0148835 39.0278834,40.3076444 39.3014959,40.6742851 C39.3999964,40.8329803 39.4984954,40.9889371 39.5969959,41.14216 L34.9921213,43.9412014 C35.0960941,44.1546191 35.2055374,44.3133119 35.3204546,44.4172847 C35.6761508,44.7401474 36.1713819,44.9015763 36.8061628,44.9015763 C37.1728035,44.9015763 37.5804799,44.7893969 38.0292044,44.5650347 C38.5381235,44.3133112 38.9184391,44.0615915 39.1701626,43.8098681 L39.4492459,45.2052846 C39.3124397,45.2873683 39.1756355,45.3667148 39.0388293,45.4433262 C38.7214388,45.612966 38.3931088,45.7579784 38.0538294,45.8783679 C37.5886882,46.0425353 37.1864839,46.1246178 36.8472045,46.1246178 C35.8676719,46.1246178 35.0304304,45.8181765 34.3354547,45.2052846 C33.6076456,44.5595592 33.2437465,43.7387342 33.2437465,42.7427849 C33.2437465,41.8726973 33.5269312,41.1120661 34.0933089,40.4608684 C34.6596867,39.8096708 35.3970612,39.4375634 36.3054545,39.3445352 C36.3765938,39.3335907 36.450468,39.3281185 36.5270795,39.3281185 L36.7076628,39.3281185 Z M49.6029531,37.4812437 L49.6029531,39.4676602 L51.400578,39.4676602 L51.400578,40.6332434 L49.6111615,40.6332434 L49.6111615,43.9412014 C49.6111615,44.1382024 49.6398904,44.3023674 49.697349,44.4337013 C49.7548076,44.5650353 49.865619,44.6772147 50.0297864,44.770243 C50.1118702,44.8194932 50.2144733,44.8550623 50.3375989,44.8769513 C50.4607245,44.8988403 50.5879524,44.9097846 50.7192864,44.9097846 C50.9053428,44.9097846 51.107813,44.890632 51.326703,44.8523263 C51.3978422,44.8413818 51.488133,44.8222292 51.5975779,44.794868 L51.3841613,46.0343262 C51.2966053,46.0452707 51.1816898,46.0575831 51.0394113,46.0712637 C50.8971329,46.0849443 50.7521204,46.0917845 50.6043697,46.0917845 C50.303396,46.0917845 50.0462042,46.0698958 49.8327865,46.0261178 C49.5427573,45.9659231 49.3074541,45.8674241 49.1268699,45.7306179 C48.6124785,45.3420882 48.3552866,44.7893993 48.3552866,44.0725347 L48.3552866,40.6332434 L47.3456617,40.6332434 L47.79712,39.4676602 L48.3552866,39.4676602 L48.3552866,37.809577 L49.6029531,37.4812437 Z M30.3462052,37.4812437 L30.3462052,39.4676602 L32.14383,39.4676602 L32.14383,40.6332434 L30.3544135,40.6332434 L30.3544135,43.9412014 C30.3544135,44.1382024 30.3831424,44.3023674 30.440601,44.4337013 C30.4980596,44.5650353 30.608871,44.6772147 30.7730384,44.770243 C30.8551222,44.8194932 30.9577253,44.8550623 31.0808509,44.8769513 C31.2039765,44.8988403 31.3312044,44.9097846 31.4625384,44.9097846 C31.6485948,44.9097846 31.851065,44.890632 32.069955,44.8523263 C32.1410942,44.8413818 32.231385,44.8222292 32.34083,44.794868 L32.1274133,46.0343262 C32.0398573,46.0452707 31.9249418,46.0575831 31.7826633,46.0712637 C31.6403849,46.0849443 31.4953724,46.0917845 31.3476217,46.0917845 C31.046648,46.0917845 30.7894562,46.0698958 30.5760385,46.0261178 C30.2860093,45.9659231 30.0507061,45.8674241 29.8701219,45.7306179 C29.3557305,45.3420882 29.0985386,44.7893993 29.0985386,44.0725347 L29.0985386,40.6332434 L28.0889137,40.6332434 L28.540372,39.4676602 L29.0985386,39.4676602 L29.0985386,37.809577 L30.3462052,37.4812437 Z M2.63487472,42.4637016 C2.25728954,42.4637016 1.93032757,42.5881933 1.65397899,42.8371807 C1.37763042,43.086168 1.2394582,43.3939774 1.2394582,43.7606181 C1.2394582,44.132731 1.39815104,44.4309641 1.71554149,44.6553263 C2.01104293,44.8632718 2.38588637,44.967243 2.84008304,44.967243 C3.22314047,44.967243 3.56241482,44.8523275 3.85791626,44.622493 C4.15341771,44.3926585 4.30116622,44.1026337 4.30116622,43.7524098 C4.30116622,43.3638801 4.12332079,43.0464944 3.76762461,42.8002432 C3.44476191,42.575881 3.0671824,42.4637016 2.63487472,42.4637016 Z M67.1852013,40.4854934 C66.9991448,40.4854934 66.8158273,40.5128543 66.635243,40.5675768 C66.4546588,40.6222992 66.263133,40.7153261 66.0606598,40.8466601 C65.6940191,41.0929113 65.4340911,41.3993526 65.2808682,41.7659933 C65.1768954,42.0122445 65.1249099,42.2803807 65.1249099,42.5704099 C65.1249099,42.6579659 65.1276459,42.7263679 65.1331182,42.7756182 C65.1331182,42.7975072 65.1385904,42.8221319 65.1495349,42.8494932 L68.3672012,40.920535 C68.2413395,40.8220346 68.1346322,40.7508964 68.0470762,40.7071184 C67.7625193,40.5593677 67.4752305,40.4854934 67.1852013,40.4854934 Z M36.6419962,40.4854934 C36.4559397,40.4854934 36.2726221,40.5128543 36.0920379,40.5675768 C35.9114537,40.6222992 35.7199278,40.7153261 35.5174546,40.8466601 C35.1508139,41.0929113 34.890886,41.3993526 34.737663,41.7659933 C34.6336903,42.0122445 34.5817047,42.2803807 34.5817047,42.5704099 C34.5817047,42.6579659 34.5844408,42.7263679 34.5899131,42.7756182 C34.5899131,42.7975072 34.5953852,42.8221319 34.6063297,42.8494932 L37.823996,40.920535 C37.6981343,40.8220346 37.5914271,40.7508964 37.5038711,40.7071184 C37.2193141,40.5593677 36.9320254,40.4854934 36.6419962,40.4854934 Z M26.2420389,36.9477021 L27.0382472,37.9737437 L26.2009973,39.0079936 L25.3965807,37.9737437 L26.2420389,36.9477021 Z" id="Combined-Shape" fill="#000000" opacity="0.196265811"></path>
                </g>
            </g>
        </g>
    </g>
</svg>