<?xml version="1.0" encoding="UTF-8"?>
<svg width="13px" height="13px" viewBox="0 0 13 13" version="1.1" xmlns="http://www.w3.org/2000/svg" xmlns:xlink="http://www.w3.org/1999/xlink">
    <!-- Generator: sketchtool 58 (101010) - https://sketch.com -->
    <title>BE967F3C-2150-4F3B-8AA4-771BA8E1603F</title>
    <desc>Created with sketchtool.</desc>
    <g id="Page-1" stroke="none" stroke-width="1" fill="none" fill-rule="evenodd">
        <g id="Form-Copy-17" transform="translate(-198.000000, -3606.000000)" fill="#FFFFFF">
            <g id="Group-5" transform="translate(177.000000, 3605.000000)">
                <g id="instagram-2" transform="translate(21.000000, 1.000000)">
                    <g id="instagram">
                        <path d="M8.9375,0 L4.0625,0 C1.8191875,0 0,1.8191875 0,4.0625 L0,8.9375 C0,11.1808125 1.8191875,13 4.0625,13 L8.9375,13 C11.1808125,13 13,11.1808125 13,8.9375 L13,4.0625 C13,1.8191875 11.1808125,0 8.9375,0 Z M11.78125,8.9375 C11.78125,10.505625 10.505625,11.78125 8.9375,11.78125 L4.0625,11.78125 C2.494375,11.78125 1.21875,10.505625 1.21875,8.9375 L1.21875,4.0625 C1.21875,2.494375 2.494375,1.21875 4.0625,1.21875 L8.9375,1.21875 C10.505625,1.21875 11.78125,2.494375 11.78125,4.0625 L11.78125,8.9375 Z" id="Shape" fill-rule="nonzero"></path>
                        <path d="M6.5,3.25 C4.7051875,3.25 3.25,4.7051875 3.25,6.5 C3.25,8.2948125 4.7051875,9.75 6.5,9.75 C8.2948125,9.75 9.75,8.2948125 9.75,6.5 C9.75,4.7051875 8.2948125,3.25 6.5,3.25 Z M6.5,8.53125 C5.380375,8.53125 4.46875,7.619625 4.46875,6.5 C4.46875,5.3795625 5.380375,4.46875 6.5,4.46875 C7.619625,4.46875 8.53125,5.3795625 8.53125,6.5 C8.53125,7.619625 7.619625,8.53125 6.5,8.53125 Z" id="Shape" fill-rule="nonzero"></path>
                        <circle id="Oval" cx="9.99375" cy="3.00625" r="1"></circle>
                    </g>
                </g>
            </g>
        </g>
    </g>
</svg>