<?xml version="1.0" encoding="UTF-8"?>
<svg width="40px" height="1px" viewBox="0 0 40 1" version="1.1" xmlns="http://www.w3.org/2000/svg" xmlns:xlink="http://www.w3.org/1999/xlink">
    <!-- Generator: sketchtool 58 (101010) - https://sketch.com -->
    <title>8E187F50-D95D-4564-9B29-205E8BC31584</title>
    <desc>Created with sketchtool.</desc>
    <g id="Page-1" stroke="none" stroke-width="1" fill="none" fill-rule="evenodd">
        <g id="Form-Copy-17" >
            <rect fill="#FFFFFF" x="0" y="0" ></rect>
            <rect id="Rectangle" fill="#4A4A4A" x="0" y="0" width="40" height="1"></rect>
            <g id="Line-8" stroke="#FFFFFF" stroke-linecap="square">
                <path d="M0,0.5 L38,0.5" id="Line-4"></path>
            </g>
        </g>
    </g>
</svg>
