<?xml version="1.0" encoding="UTF-8"?>
<svg width="35px" height="35px" viewBox="0 0 35 35" version="1.1" xmlns="http://www.w3.org/2000/svg" xmlns:xlink="http://www.w3.org/1999/xlink">
    <!-- Generator: sketchtool 57.1 (101010) - https://sketch.com -->
    <title>60E93614-7BB7-4537-94AA-6428AC02EE8F</title>
    <desc>Created with sketchtool.</desc>
    <g id="Page-1" stroke="none" stroke-width="1" fill="none" fill-rule="evenodd">
        <g id="Form-Copy-17" transform="translate(-1008.000000, -2299.000000)" stroke="#FFFFFF" stroke-width="2">
            <g id="Group-7" transform="translate(343.000000, 1614.000000)">
                <g id="world-2" transform="translate(664.000000, 684.000000)">
                    <g id="world" transform="translate(2.000000, 2.000000)">
                        <g id="Oval-Copy-5">
                            <circle id="Oval-Copy-2" cx="16.5" cy="16.5" r="16.5"></circle>
                        </g>
                        <path d="M29.1747711,10.9352605 C26.1480815,7.30800546 21.5935725,5 16.5,5 C11.4229912,5 6.88154574,7.29301909 3.85480477,10.8999161" id="Oval-Copy-3" transform="translate(16.514788, 7.967630) scale(1, -1) translate(-16.514788, -7.967630) "></path>
                        <path d="M29.1747711,27.9352605 C26.1480815,24.3080055 21.5935725,22 16.5,22 C11.4229912,22 6.88154574,24.2930191 3.85480477,27.8999161" id="Oval-Copy-4"></path>
                        <path d="M16.5,0 L16.5,33" id="Line-3" stroke-linecap="square"></path>
                        <path d="M16.5,0 L16.5,33" id="Line-3-Copy" stroke-linecap="square" transform="translate(16.500000, 16.500000) rotate(-90.000000) translate(-16.500000, -16.500000) "></path>
                    </g>
                </g>
            </g>
        </g>
    </g>
</svg>