<svg width="62" height="41" xmlns="http://www.w3.org/2000/svg">
    <g stroke="none" stroke-width="1" fill="none" fill-rule="evenodd">
        <g transform="translate(-195 -1425)">
            <g transform="translate(195 1426)">
                <g>
                    <path d="M31 39.5V0" stroke="#FFF" stroke-linecap="square"/>
                    <path fill="#FFF" d="M56 16.25l1-1 5 5-5 5-1-1 3.969-4z"/>
                    <!--					<path fill="#FFF" transform="matrix(-1 0 0 1 6 0)" d="M0 16.25l1-1 5 5-5 5-1-1 3.969-4z"/>-->
                </g>
            </g>
        </g>
    </g>
</svg>
