<?xml version="1.0" encoding="UTF-8"?>
<svg width="12px" height="15px" viewBox="0 0 12 15" version="1.1" xmlns="http://www.w3.org/2000/svg" xmlns:xlink="http://www.w3.org/1999/xlink">
    <!-- Generator: sketchtool 58 (101010) - https://sketch.com -->
    <title>3575A2FE-BB67-4734-8DFD-D2B35F507969</title>
    <desc>Created with sketchtool.</desc>
    <g id="Page-1" stroke="none" stroke-width="1" fill="none" fill-rule="evenodd">
        <g id="Form-Copy-17" transform="translate(-226.000000, -3605.000000)" fill="#FFFFFF">
            <g id="Group-5" transform="translate(177.000000, 3605.000000)">
                <g id="Fill-3" transform="translate(49.000000, 0.000000)">
                    <path d="M4.93004445,9.91461628 C4.82961511,10.4324406 4.71914553,10.9404841 4.59862993,11.4387656 C4.47811626,11.9370489 4.32747609,12.4060123 4.14670559,12.8456726 C3.96593315,13.2853343 3.75001507,13.6907929 3.49894364,14.062062 C3.24787221,14.433331 2.93654779,14.7459739 2.56496269,15 C2.45449118,14.218381 2.42938384,13.4807392 2.48964068,12.7870515 C2.54989944,12.0933657 2.6528374,11.4265574 2.79845841,10.786606 C2.94407941,10.1466565 3.10727421,9.51892836 3.28804471,8.90340277 C3.46881522,8.28787719 3.62447839,7.6674762 3.75503423,7.04218105 C3.53409314,6.68068285 3.42362356,6.25324197 3.42362356,5.7598453 C3.42362356,5.26644862 3.51651742,4.81702436 3.70231094,4.41155937 C3.88810253,4.00609439 4.15423528,3.69100911 4.50071305,3.46629229 C4.84719275,3.24157735 5.25141103,3.22203822 5.71338332,3.40767116 C6.29586735,3.62261655 6.53438222,4.02807591 6.42893179,4.62406049 C6.32348137,5.22004508 6.16279904,5.84288846 5.94687711,6.49260939 C5.7309571,7.14233032 5.60793289,7.7456327 5.57780447,8.30253716 C5.54767605,8.85943974 5.88912696,9.20627797 6.60217068,9.34306123 C7.35538498,9.48961405 7.99058651,9.2990982 8.50779262,8.77150618 C9.02500067,8.24391228 9.39406945,7.58687356 9.61501246,6.80036937 C9.83595548,6.01386518 9.9012334,5.20539073 9.81084814,4.37492164 C9.72046096,3.54445067 9.43926497,2.8996239 8.96725244,2.44042444 C8.2943793,1.77604729 7.51356062,1.4194395 6.62476747,1.37058793 C5.73597433,1.32173637 4.90494097,1.49515548 4.13164041,1.89085091 C3.35833986,2.28654445 2.73318242,2.86298053 2.25614689,3.62017416 C1.77911077,4.37736778 1.62093822,5.22980714 1.78162382,6.17752036 C1.85192378,6.64649125 2.02767032,7.02019766 2.30887017,7.29864895 C2.59007195,7.57710024 2.54487836,8.03385355 2.17329325,8.66891827 C1.30960764,8.48328345 0.724620006,8.08271075 0.418313011,7.46718516 C0.112005803,6.85165957 -0.0260814034,6.10424864 0.0040471687,5.22492611 C0.0341757408,4.5019297 0.202391076,3.8400062 0.508698264,3.23913683 C0.81500526,2.63826746 1.21169211,2.11312534 1.69877058,1.66369357 C2.18584981,1.2142618 2.73568717,0.850326837 3.34830155,0.571875545 C3.96091593,0.293424253 4.58858584,0.120005138 5.23132863,0.0516125726 C6.03475568,-0.0363191181 6.81808683,-0.0118952117 7.58134522,0.124888044 C8.34460169,0.261673175 9.03001596,0.50592537 9.63760926,0.857654009 C10.2452006,1.20938077 10.7523588,1.66369169 11.1590934,2.22059428 C11.5658299,2.77749686 11.8244291,3.42720841 11.9349006,4.16974582 C12.0453721,5.00998635 12.0152437,5.84288658 11.8445154,6.66847277 C11.673787,7.49405708 11.3725048,8.22925606 10.9406628,8.87409221 C10.5088209,9.51892836 9.96149216,10.0318567 9.29866311,10.4128977 C8.63583599,10.7939369 7.87258917,10.9502574 7.00890335,10.8818668 C6.53689083,10.8427848 6.16530958,10.7279868 5.89415382,10.5374672 C5.62299613,10.3469476 5.30162956,10.1393331 4.93004445,9.91461628 Z" id="pionterest"></path>
                </g>
            </g>
        </g>
    </g>
</svg>