<svg width="62" height="62" xmlns="http://www.w3.org/2000/svg">
	<g fill="none" fill-rule="evenodd">
		<path d="M1 31l4.02 15L16 56.98 31 61l15-4.02L56.98 46 61 31l-4.02-15L46 5.02 31 1 16 5.02 5.02 16z" stroke="#FFFFFF" opacity="0.32" stroke-width=".875"/>
		<g stroke="#FFFFFF" stroke-linecap="square">
			<path d="M23.575 24.075l14.86 14.86M38.425 24.075l-14.86 14.86"/>
		</g>
	</g>
</svg>
