<?xml version="1.0" encoding="UTF-8"?>
<svg width="182px" height="182px" viewBox="0 0 182 182" version="1.1" xmlns="http://www.w3.org/2000/svg" xmlns:xlink="http://www.w3.org/1999/xlink">
    <!-- Generator: sketchtool 58 (101010) - https://sketch.com -->
    <title>C037AB79-26D6-44CA-BBAB-F1DC52F98A4F</title>
    <desc>Created with sketchtool.</desc>
    <g id="Page-1" stroke="none" stroke-width="1" fill="none" fill-rule="evenodd">
        <g id="Form-Copy-17" transform="translate(-199.000000, -4158.000000)" stroke="#FFFFFF">
            <g id="clock-2" transform="translate(200.000000, 4159.000000)">
                <g id="clock">
                    <circle id="Oval" opacity="0.200000003" cx="90" cy="90" r="90"></circle>
                    <path d="M90,90 L135.25471,44.7452899" id="Line" stroke-linecap="square"></path>
                    <path d="M90,90 L173.750348,90" id="Line-Copy" stroke-linecap="square"></path>
                    <circle id="Oval" stroke-width="0.666666667" fill="#FFFFFF" cx="90" cy="90" r="2"></circle>
                </g>
            </g>
        </g>
    </g>
</svg>