<?xml version="1.0" encoding="UTF-8"?>
<svg width="13px" height="13px" viewBox="0 0 13 13" version="1.1" xmlns="http://www.w3.org/2000/svg" xmlns:xlink="http://www.w3.org/1999/xlink">
    <!-- Generator: sketchtool 56 (101010) - https://sketch.com -->
    <title>5CE1FBAE-EA56-4C0B-86DA-2A3344C406E8</title>
    <desc>Created with sketchtool.</desc>
    <g id="Page-1" stroke="none" stroke-width="1" fill="none" fill-rule="evenodd">
        <g id="Form-Copy-11" transform="translate(-148.000000, -484.000000)" fill="#FFFFFF" fill-rule="nonzero">
            <g id="Group-6" transform="translate(130.000000, 466.000000)">
                <g id="Group-4">
                    <g id="Shape-2" transform="translate(18.000000, 18.000000)">
                        <path d="M6.35423041,12.7084608 C9.8581106,12.7084608 12.7086359,9.85793548 12.7086359,6.3540553 C12.7086359,5.62872811 12.1207742,5.04069124 11.3952719,5.04069124 L6.35423041,5.04069124 C5.62872811,5.04069124 5.04086636,5.62872811 5.04086636,6.3540553 C5.04086636,7.07938249 5.62872811,7.66741935 6.35423041,7.66741935 L9.84305069,7.66741935 C9.31087558,9.07674654 7.94760369,10.0817327 6.35423041,10.0817327 C4.29890323,10.0817327 2.62672811,8.4095576 2.62672811,6.3540553 C2.62672811,4.29872811 4.29890323,2.626553 6.35423041,2.626553 C7.34958525,2.626553 8.28575115,3.01425806 8.99006452,3.7182212 C9.50315207,4.23095853 10.3345991,4.23095853 10.8475115,3.71787097 C11.3602488,3.20495853 11.3600737,2.37333641 10.8471613,1.86059908 C9.64692166,0.660709677 8.05109677,7.99360578e-15 6.35423041,7.99360578e-15 C2.85052535,7.99360578e-15 -9.93871652e-13,2.85052535 -9.93871652e-13,6.35423041 C-9.93871652e-13,9.85793548 2.85052535,12.7084608 6.35423041,12.7084608 Z" id="google"></path>
                    </g>
                </g>
            </g>
        </g>
    </g>
</svg>