<?xml version="1.0" encoding="UTF-8"?>
<svg width="39px" height="20px" viewBox="0 0 39 20" version="1.1" xmlns="http://www.w3.org/2000/svg" xmlns:xlink="http://www.w3.org/1999/xlink">
    <!-- Generator: sketchtool 58 (101010) - https://sketch.com -->
    <title>DCAF8BCA-0D3A-405C-B395-E0E750B2027A</title>
    <desc>Created with sketchtool.</desc>
    <g id="Page-1" stroke="none" stroke-width="1" fill="none" fill-rule="evenodd">
        <g id="Form-Copy-17" transform="translate(-193.000000, -4508.000000)" fill="#FFFFFF">
            <g id="Group-42" transform="translate(193.000000, 4508.000000)">
                <g id="Group-41">
                    <g id="Group-3" transform="translate(0.055385, 0.234577)">
                        <path d="M29.3099668,19.2452951 C28.7375114,19.2452951 28.0828283,19.1910686 27.3848345,19.0334928 C25.7402806,18.6634769 24.6455852,17.8698565 23.7655606,17.2325359 C23.6193083,17.1266348 23.4780775,17.0239234 23.3406129,16.9288676 C22.5290068,16.3668262 20.6930068,14.0427432 16.8854252,9.04497608 C15.7091298,7.50111643 14.4926622,5.90430622 14.1995298,5.59617225 C13.3716037,4.72535885 12.3409329,3.64210526 10.7227422,3.23763955 C9.40709908,2.90845295 7.99792985,3.0953748 6.532896,3.79202552 C5.66291446,4.20542265 3.55951754,5.43795853 2.80816985,7.95151515 C2.13967754,10.1875598 2.82574523,12.8267943 4.55629292,14.6755981 C5.76208985,15.9629984 7.25536985,16.6251994 8.96520369,16.6124402 C11.2424714,16.5837321 13.664736,15.3141946 15.6099545,13.1304625 L17.4716898,14.8427432 C15.0588406,17.5515152 11.9699668,19.1266348 8.99596062,19.1642743 C6.59692062,19.1948963 4.43703138,18.2500797 2.73724062,16.4344498 C0.394065231,13.9311005 -0.521110154,10.3100478 0.405991385,7.20956938 C1.45047138,3.71419458 4.29454523,2.03891547 5.46895754,1.48070175 C7.46627446,0.530143541 9.43534523,0.28708134 11.3221883,0.759170654 C13.6433945,1.33971292 15.0644898,2.8338118 16.0047729,3.82264753 C16.3757391,4.21244019 17.2884037,5.40606061 18.870816,7.48261563 C20.6842191,9.86283892 24.0593206,14.292823 24.7604529,14.8242424 C24.9054498,14.9250399 25.0617452,15.0373206 25.2230622,15.1547049 C25.9894745,15.7097289 26.7822498,16.2838915 27.9277883,16.5422648 C29.2114191,16.83126 30.2678252,16.6405104 30.6626437,16.5460925 C33.5086006,15.860925 34.8487237,13.0960128 34.9918375,12.7834131 C35.7852406,11.0513557 35.6647237,9.41945774 35.5216098,8.60031898 C35.3515052,7.62870813 34.8173391,5.79393939 33.1464222,4.42807018 C31.5853514,3.15151515 29.8667298,2.95502392 28.9572037,2.95502392 L28.9189145,2.95502392 C27.2580406,2.9645933 25.9543237,3.3907496 25.0429145,4.22328549 C23.9940406,5.18086124 23.7002806,5.5138756 23.2131914,6.06507177 L22.2829514,7.11642743 L21.3558498,6.34641148 C21.3156775,6.31259968 20.3302006,5.48835726 17.5514068,2.63732057 C17.459136,2.54290271 15.8083052,0.887400319 15.8083052,0.887400319 L19.3353083,0.841467305 C19.3353083,0.841467305 21.4970806,3.01945774 22.0701637,3.56555024 C22.3739668,3.25103668 22.7574868,2.87974482 23.3650929,2.32535885 C24.7472714,1.06283892 26.6115175,0.415948963 28.9044775,0.403178933 C30.1542129,0.401275917 32.5319114,0.650717703 34.7200468,2.43955343 C37.0293268,4.32727273 37.7624714,6.83062201 37.9934622,8.15502392 C38.1886745,9.26953748 38.3525022,11.4934609 37.2678498,13.860925 C36.9483545,14.5582137 35.1550375,18.0867624 31.2407483,19.0296651 C30.8974006,19.1119617 30.2044283,19.2452951 29.3099668,19.2452951" id="Fill-1"></path>
                    </g>
                </g>
            </g>
        </g>
    </g>
</svg>