
<svg width="19px" height="25px" viewBox="0 0 19 25" version="1.1" xmlns="http://www.w3.org/2000/svg" xmlns:xlink="http://www.w3.org/1999/xlink">
    <g id="Page-1" stroke-width="1" fill="none" fill-rule="evenodd">
        <path d="M0.501924332,16.1826876 C0.599129181,20.7927557 4.36662793,24.5 9,24.5 C13.6944204,24.5 17.5,20.6944204 17.5,16 L17.5,6.75 C17.5,5.78350169 16.7164983,5 15.75,5 C15.5367997,5 15.3295796,5.03791012 15.1349401,5.1109955 L14.4470044,5.36930914 L14.4592463,4.63457678 L14.4657423,4.24593083 L14.4659849,4.21598487 C14.4659849,3.2682726 13.6977123,2.5 12.75,2.5 C12.3810811,2.5 12.0299781,2.61175228 11.7333003,2.81770636 L11.0665283,3.28058034 L10.9530779,2.47686009 C10.8341849,1.63458329 10.1095524,1 9.25,1 C8.38150186,1 7.64347203,1.62650711 7.49768619,2.47161242 L7.36547451,3.23802971 L6.72309705,2.79959318 C6.43845783,2.60532075 6.10274189,2.5 5.75,2.5 C4.77824678,2.5 3.98792871,3.28290311 3.97876979,4.25449957 L3.94618348,7.79669567 L3.18645525,7.31426769 C2.90868797,7.13788526 2.58698537,7.04296875 2.25,7.04296875 C1.28350169,7.04296875 0.5,7.82647044 0.5,8.79296875 L0.5,15.6601562 C0.5,15.7428621 0.505702153,15.8246998 0.516976284,15.9053306 L0.548206066,16.1286811 L0.501924332,16.1826876 Z" id="Combined-Shape"></path>
        <path d="M7.3500601,2.90468282 L7.3500601,8.86875468" id="Line-2" stroke-linecap="round"></path>
        <path d="M3.72115385,6.86523438 L3.72115385,13.1102757 C5.27616078,13.6312754 6.35104943,14.4123547 6.94581981,15.4535136 C7.54059019,16.4946725 7.71819473,17.9061107 7.47863345,19.6878282" id="Line-2-Copy-3" stroke-linecap="round" stroke-linejoin="round"></path>
        <path d="M11.1000601,2.90329334 L11.1000601,8.87014416" id="Line-2-Copy" stroke-linecap="round"></path>
        <path d="M14.5039062,3.90283356 L14.5039062,8.87016246" id="Line-2-Copy-2" stroke-linecap="round"></path>
    </g>
</svg>