<?xml version="1.0" encoding="UTF-8"?>
<svg width="17px" height="17px" viewBox="0 0 17 17" version="1.1" xmlns="http://www.w3.org/2000/svg" xmlns:xlink="http://www.w3.org/1999/xlink">
    <!-- Generator: sketchtool 56 (101010) - https://sketch.com -->
    <title>B4C27C9C-C800-4793-8149-8067590322D7</title>
    <desc>Created with sketchtool.</desc>
    <g id="Page-1" stroke="none" stroke-width="1" fill="none" fill-rule="evenodd">
        <g id="Form-Copy-3" transform="translate(-1318.000000, -562.000000)" stroke="#FFFFFF" stroke-width="2">
            <g id="Group-2" transform="translate(1318.000000, 558.000000)">
                <g id="Group-7" transform="translate(0.000000, 4.000000)">
                    <g id="Next">
                        <rect id="Rectangle-11" x="1" y="1" width="15" height="15"></rect>
                        <path d="M1.5,1.5 L15.5,15.5" id="Line" stroke-linecap="square"></path>
                    </g>
                </g>
            </g>
        </g>
    </g>
</svg>